<?xml version="1.0" encoding="UTF-8"?>
<svg width="97px" height="97px" viewBox="0 0 97 97" version="1.1" xmlns="http://www.w3.org/2000/svg" xmlns:xlink="http://www.w3.org/1999/xlink">
    <!-- Generator: Sketch 48.2 (47327) - http://www.bohemiancoding.com/sketch -->
    <title>Group 13</title>
    <desc>Created with Sketch.</desc>
    <defs></defs>
    <g id="6" stroke="none" stroke-width="1" fill="none" fill-rule="evenodd" transform="translate(-1128.000000, -1496.000000)">
        <g id="Group-13" transform="translate(1128.000000, 1496.000000)" fill-rule="nonzero">
            <g id="email-(2)">
                <circle id="Oval" fill="#FF8E31" cx="48.3375738" cy="48.3372483" r="48.3372483"></circle>
                <path d="M96.610047,45.8204564 L78.1227584,27.3331678 L18.5253725,69.3458859 L45.7918121,96.608094 C46.6348658,96.6520369 47.483453,96.6748221 48.3372483,96.6748221 C75.0330805,96.6748221 96.6744966,75.033406 96.6744966,48.3375738 C96.6744966,47.4932181 96.6523624,46.6540705 96.610047,45.8204564 Z" id="Shape" fill="#ED7425"></path>
                <path d="M74.6763289,70.7426208 L21.9991443,70.7426208 C19.2278087,70.7426208 16.9808591,68.4959966 16.9808591,65.7243356 L16.9808591,30.9501611 C16.9808591,28.1788255 19.2274832,25.9318758 21.9991443,25.9318758 L74.6763289,25.9318758 C77.4476644,25.9318758 79.6946141,28.1785 79.6946141,30.9501611 L79.6946141,65.7246611 C79.6939631,68.4959966 77.4476644,70.7426208 74.6763289,70.7426208 Z" id="Shape" fill="#FFFFFF"></path>
                <path d="M74.6763289,25.9318758 L48.3919329,25.9318758 L48.3919329,70.7429463 L74.6763289,70.7429463 C77.4476644,70.7429463 79.6946141,68.4963221 79.6946141,65.7246611 L79.6946141,30.9498356 C79.6939631,28.1785 77.4476644,25.9318758 74.6763289,25.9318758 Z" id="Shape" fill="#ECF0F1"></path>
                <path d="M48.3375738,51.2693826 L79.5702718,29.8522383 C79.0689966,27.6095201 77.0700805,25.9318758 74.6763289,25.9318758 L21.9988188,25.9318758 C19.6050671,25.9318758 17.6058255,27.6095201 17.1048758,29.8522383 L48.3375738,51.2693826 Z" id="Shape" fill="#D0D5D9"></path>
                <path d="M74.6763289,25.9318758 L48.3919329,25.9318758 L48.3919329,51.2322752 L79.5702718,29.8522383 C79.0689966,27.6095201 77.069755,25.9318758 74.6763289,25.9318758 Z" id="Shape" fill="#AAADAF"></path>
                <path d="M55.3596577,48.7203658 L55.3596577,41.6982819 C55.3596577,37.8202349 52.2156208,34.676198 48.3375738,34.676198 C44.4595268,34.676198 41.3154899,37.8202349 41.3154899,41.6982819 L41.3154899,48.7203658 L43.6561846,46.3796711 L43.6561846,41.6982819 C43.6561846,39.1128087 45.7521007,37.0168926 48.3375738,37.0168926 C50.923047,37.0168926 53.0189631,39.1128087 53.0189631,41.6982819 L53.0189631,46.3796711 L55.3596577,48.7203658 Z" id="Shape" fill="#8A9093"></path>
                <path d="M48.3919329,34.6791275 L48.3919329,37.0198221 C50.9520168,37.0491174 53.0189631,39.1313624 53.0189631,41.6982819 L53.0189631,46.3796711 L55.3596577,48.7203658 L55.3596577,41.6982819 C55.3596577,37.8384631 52.2449161,34.7084228 48.3919329,34.6791275 Z" id="Shape" fill="#777D7F"></path>
                <path d="M41.7835638,64.4496644 L54.8915839,64.4496644 C56.3911779,64.4496644 57.6066074,63.2339094 57.6066074,61.7346409 L57.6066074,48.6266208 C57.6066074,47.1270268 56.3908523,45.9115973 54.8915839,45.9115973 L41.7835638,45.9115973 C40.2839698,45.9115973 39.0685403,47.1273523 39.0685403,48.6266208 L39.0685403,61.7346409 C39.0685403,63.2339094 40.2839698,64.4496644 41.7835638,64.4496644 Z" id="Shape" fill="#32373B"></path>
                <path d="M54.8912584,45.9115973 L48.3916074,45.9115973 L48.3916074,64.4496644 L54.8912584,64.4496644 C56.3908523,64.4496644 57.6062819,63.2339094 57.6062819,61.7346409 L57.6062819,48.6266208 C57.6066074,47.1270268 56.3911779,45.9115973 54.8912584,45.9115973 Z" id="Shape" fill="#292D30"></path>
                <path d="M50.1629966,54.0394161 C50.1629966,53.0310067 49.3456577,52.2136678 48.3372483,52.2136678 C47.3288389,52.2136678 46.5115,53.0310067 46.5115,54.0394161 C46.5115,54.615557 46.7790638,55.1288758 47.1960336,55.4634933 L47.1960336,57.0063792 C47.1960336,57.6365537 47.7070738,58.147594 48.3372483,58.147594 C48.9674228,58.147594 49.4784631,57.6365537 49.4784631,57.0063792 L49.4784631,55.4634933 C49.8957584,55.1288758 50.1629966,54.6158826 50.1629966,54.0394161 Z" id="Shape" fill="#FFFFFF"></path>
                <path d="M48.3919329,52.2165973 L48.3919329,58.1420604 C48.9963926,58.1130906 49.4787886,57.618 49.4787886,57.0063792 L49.4787886,55.4634933 C49.8957584,55.1288758 50.1633221,54.6158826 50.1633221,54.0394161 C50.1629966,53.0495604 49.374953,52.2455671 48.3919329,52.2165973 Z" id="Shape" fill="#ECF0F1"></path>
            </g>
            <g id="eye" transform="translate(9.000000, 21.000000)">
                <circle id="Oval" fill="#5E7D9B" cx="14" cy="14" r="14"></circle>
                <path d="M14.0000271,20 C19.2404927,20 23.910904,17.6756915 27,14 C23.910904,10.3423227 19.2404385,8 14.0000271,8 C8.75961573,8 4.08909602,10.3423227 1,14 C4.08909602,17.6576241 8.7595615,20 14.0000271,20 Z" id="Shape" fill="#FCFCFD"></path>
                <circle id="Oval" fill="#6EB1E1" cx="14" cy="14" r="6"></circle>
                <circle id="Oval" fill="#646B79" cx="13.5" cy="13.5" r="3.5"></circle>
                <g id="Group" transform="translate(11.000000, 11.000000)" fill="#FCFCFD">
                    <ellipse id="Oval" cx="3.00855446" cy="1.30324138" rx="1.45027723" ry="1.26274138"></ellipse>
                    <path d="M3.00855446,5.98593103 C4.21710891,5.98593103 5.30483168,5.49486207 5.98972277,4.72318966 C5.58689109,3.61825862 4.39841584,2.81151724 3.00855446,2.81151724 C1.61869307,2.81151724 0.410138614,3.61825862 0.0273861386,4.72318966 C0.712217822,5.49486207 1.79994059,5.98593103 3.00855446,5.98593103 Z" id="Shape"></path>
                </g>
            </g>
        </g>
    </g>
</svg>